[
	{
        "pk": 1,
        "model": "signin.event",
        "fields": {
            "date": "2010-04-20"
        }
	},
	{
        "pk": 1,
        "model": "signin.member",
        "fields": {
            "idnum": "878787878"
        }
	},
	{
        "pk": 1,
        "model": "signin.record",
        "fields": {
            "member": "1",
            "event":"1"
        }
	}
]